The Impact of Income and Substance Use on Health Outcomes in US Counties
…
chr_2023_raw <- chr_2023_raw %>% filter(county_ranked == 1)

dim(chr_2023_raw)

[1] 3082  720

2 State Selection

The goal of the analysis will include all of the counties in the Unitied States of America.

chr_2023 <- chr_2023_raw %>% mutate(state = factor(state))

chr_2023 %>% count(state)

# A tibble: 51 × 2
   state     n
   <fct> <int>
 1 AK       24
 2 AL       67
 3 AR       75
 4 AZ       15
 5 CA       58
 6 CO       59
 7 CT        8
 8 DC        1
 9 DE        3
10 FL       67
# ℹ 41 more rows
…
write_csv(chr_2023, here("data/processed/chr_2023.csv"))
saveRDS(chr_2023, here("data/processed/chr_2023.rds"))

8 Print the Tibble

The tibble is printed to confirm that:

It is a tibble (instead of a data frame or another object type).

All variables have the correct data types, ensuring compatibility with the analysis.

chr_2023

# A tibble: 3,082 × 11
   fipscode state county          Poor_or_fair_health Median_household_income
   <chr>    <fct> <chr>                         <dbl>                   <dbl>
 1 01001    AL    Autauga County                 16.9                    66.4
 2 01003    AL    Baldwin County                 14.9                    65.7
 3 01005    AL    Barbour County                 27.5                    38.6
 4 01007    AL    Bibb County                    21.6                    48.5
 5 01009    AL    Blount County                  18.4                    56.9
 6 01011    AL    Bullock County                 29.7                    32.0
 7 01013    AL    Butler County                  22.7                    39.4
 8 01015    AL    Calhoun County                 19.6                    48.2
 9 01017    AL    Chambers County                21.5                    45.4
10 01019    AL    Cherokee County                19.3                    46.4
# ℹ 3,072 more rows
# ℹ 6 more variables: Adult_obesity <dbl>, adult_smoking_grp <fct>,
#   adult_smoking <dbl>, insufficent_sleep_2023 <dbl>,
#   insufficent_sleep_2018 <dbl>, county_ranked <dbl>
…
